{
    "name": "rove.roveexporter.runtime",
    "rootNamespace": "Rove.RoveExporter",
    "references": [
        "PathCreator"
    ],
    "includePlatforms": [],
    "excludePlatforms": [],
    "allowUnsafeCode": false,
    "overrideReferences": false,
    "precompiledReferences": [],
    "autoReferenced": true,
    "defineConstraints": [],
    "versionDefines": [],
    "noEngineReferences": false
}